🍁🍁🍁🍁🍁🍁🍁🍁🍁🍁🍁🍁🍁🍁🍁🍁🍁🍁🍁🍁🍁🍁🍁🍁🍁🍁🍁🍁🍁🍁🍁🍁🍁🍁🍁


Airable, un vol doux comme le sirop d'érable.
On a des super pistes (enfin... une).
Notre tour fonctionne (parfois).
Vous ne vous écraserez (probablement) pas.

🍁🍁🍁🍁🍁🍁🍁🍁🍁🍁🍁🍁🍁🍁🍁🍁🍁🍁🍁🍁🍁🍁🍁🍁🍁🍁🍁🍁🍁🍁🍁🍁🍁🍁🍁


